Intro to Data Science: Final Project
…
words %>%
  inner_join(topic_df) %>%
  count(topic, president) %>%
  pivot_wider(id_cols=president, values_from = n, names_from = topic, 
              values_fill=0)

Joining, by = "word"

# A tibble: 31 × 6
   president             economy education healthcare infrastructure security
   <chr>                   <int>     <int>      <int>          <int>    <int>
 1 Andrew Jackson              7         3          0              0        0
 2 Barack Obama               53         9          3              1        4
 3 Benjamin Harrison           3         2          0              0        0
 4 Calvin Coolidge            43         1          0              0        0
 5 Chester A. Arthur           1         0          0              0        0
 6 Donald J. Trump             9         0          0              2        1
 7 Dwight D. Eisenhower       39         4          1              2       22
 8 Franklin D. Roosevelt      23         2          1              2       16
 9 Franklin Pierce            12         0          0              0        2
10 George Bush                13         2          0              1        3
# … with 21 more rows
…
words %>%
  inner_join(topic_df2) %>%
  count(topic, president) %>%
  pivot_wider(id_cols=president, values_from = n, names_from = topic, 
              values_fill=0)

Joining, by = "word"

# A tibble: 31 × 2
   president             economy
   <chr>                   <int>
 1 Andrew Jackson              7
 2 Barack Obama               53
 3 Benjamin Harrison           3
 4 Calvin Coolidge            43
 5 Chester A. Arthur           1
 6 Donald J. Trump            10
 7 Dwight D. Eisenhower       39
 8 Franklin D. Roosevelt      23
 9 Franklin Pierce            12
10 George Bush                13
# … with 21 more rows
…
words %>%
  inner_join(topic_df3) %>%
  count(topic, president) %>%
  pivot_wider(id_cols=president, values_from = n, names_from = topic, 
              values_fill=0)

Joining, by = "word"

# A tibble: 31 × 2
   president             economy
   <chr>                   <int>
 1 Andrew Jackson              7
 2 Barack Obama               53
 3 Benjamin Harrison           5
 4 Calvin Coolidge            44
 5 Chester A. Arthur           1
 6 Donald J. Trump            10
 7 Dwight D. Eisenhower       43
 8 Franklin D. Roosevelt      29
 9 Franklin Pierce            12
10 George Bush                13
# … with 21 more rows
…
words %>%
  inner_join(topic_df4) %>%
  count(topic, president) %>%
  pivot_wider(id_cols=president, values_from = n, names_from = topic, 
              values_fill=0)

Joining, by = "word"

# A tibble: 31 × 2
   president             economy
   <chr>                   <int>
 1 Andrew Jackson              8
 2 Barack Obama               53
 3 Benjamin Harrison           4
 4 Calvin Coolidge            43
 5 Chester A. Arthur           5
 6 Donald J. Trump            10
 7 Dwight D. Eisenhower       39
 8 Franklin D. Roosevelt      23
 9 Franklin Pierce            12
10 George Bush                13
# … with 21 more rows
…
words %>%
  inner_join(topic_df5) %>%
  count(topic, president) %>%
  pivot_wider(id_cols=president, values_from = n, names_from = topic, 
              values_fill=0)

Joining, by = "word"

# A tibble: 25 × 2
   president             security
   <chr>                    <int>
 1 Barack Obama                 4
 2 Benjamin Harrison            1
 3 Chester A. Arthur            1
 4 Donald J. Trump              1
 5 Dwight D. Eisenhower        22
 6 Franklin D. Roosevelt       16
 7 Franklin Pierce              2
 8 George Bush                  3
 9 George W. Bush              13
10 Gerald R. Ford               2
# … with 15 more rows
…
words %>%
  inner_join(topic_df6) %>%
  count(topic, president) %>%
  pivot_wider(id_cols=president, values_from = n, names_from = topic, 
              values_fill=0)

Joining, by = "word"

# A tibble: 23 × 2
   president             security
   <chr>                    <int>
 1 Barack Obama                 4
 2 Donald J. Trump              1
 3 Dwight D. Eisenhower        22
 4 Franklin D. Roosevelt       16
 5 Franklin Pierce              2
 6 George Bush                  3
 7 George W. Bush              13
 8 Gerald R. Ford               2
 9 Grover Cleveland             1
10 Harry S. Truman              9
# … with 13 more rows
…
words %>%
  inner_join(topic_df7) %>%
  count(topic, president) %>%
  pivot_wider(id_cols=president, values_from = n, names_from = topic, 
              values_fill=0)

Joining, by = "word"

# A tibble: 23 × 2
   president             security
   <chr>                    <int>
 1 Barack Obama                 4
 2 Donald J. Trump              1
 3 Dwight D. Eisenhower        22
 4 Franklin D. Roosevelt       16
 5 Franklin Pierce              2
 6 George Bush                  3
 7 George W. Bush              13
 8 Gerald R. Ford               2
 9 Grover Cleveland             1
10 Harry S. Truman              9
# … with 13 more rows
…
words %>%
  inner_join(topic_df8) %>%
  count(topic, president) %>%
  pivot_wider(id_cols=president, values_from = n, names_from = topic, 
              values_fill=0)

Joining, by = "word"

# A tibble: 25 × 2
   president             education
   <chr>                     <int>
 1 Andrew Jackson                3
 2 Barack Obama                  9
 3 Benjamin Harrison             2
 4 Calvin Coolidge               3
 5 Dwight D. Eisenhower          4
 6 Franklin D. Roosevelt         2
 7 George Bush                   2
 8 George W. Bush               17
 9 Harry S. Truman               2
10 Herbert Hoover               11
# … with 15 more rows
…
